src/build/multiplier_fsm_tb.vcd
$date
	Thu Oct 31 17:27:56 2024
$end
$version
	Icarus Verilog
$end
$timescale
	1s
$end
$scope module multiplier_fsm_tb $end
$var wire 1 ! subs_M $end
$var wire 1 " shift_all $end
$var wire 1 # reset_Qprev $end
$var wire 1 $ reset_A $end
$var wire 1 % mult_DONE $end
$var wire 1 & load_Q $end
$var wire 1 ' load_M $end
$var wire 1 ( add_M $end
$var reg 2 ) Qo_Qprev [1:0] $end
$var reg 1 * clk $end
$var reg 1 + reset $end
$var reg 1 , valid $end
$scope module dut $end
$var wire 2 - Qo_Qprev [1:0] $end
$var wire 1 * clk $end
$var wire 1 % mult_DONE $end
$var wire 1 + reset $end
$var wire 1 , valid $end
$var reg 4 . N [3:0] $end
$var reg 1 ( add_M $end
$var reg 2 / current_state [1:0] $end
$var reg 1 0 done $end
$var reg 1 ' load_M $end
$var reg 1 & load_Q $end
$var reg 2 1 next_state [1:0] $end
$var reg 1 $ reset_A $end
$var reg 1 # reset_Qprev $end
$var reg 1 " shift_all $end
$var reg 1 ! subs_M $end
$upscope $end
$upscope $end
$enddefinitions $end
$comment Show the parameter values. $end
$dumpall
$end
#0
$dumpvars
bx 1
00
b0 /
b1000 .
b0 -
0,
1+
0*
b0 )
x(
x'
x&
0%
x$
x#
x"
x!
$end
#5
b0 1
0"
0!
0(
0#
0$
0&
0'
1*
#10
0*
b1 )
b1 -
1,
0+
#15
b1 1
1*
#20
0*
#25
b1 /
1*
#30
0*
#35
b10 1
1#
1$
1&
1'
1*
#40
0*
#45
1#
1$
1&
1'
b10 /
1*
#50
0*
#55
b11 1
1(
0#
0$
0&
0'
1*
#60
0*
#65
1(
b11 /
1*
#70
0*
#75
b10 1
b111 .
1"
0(
1*
#80
0*
#85
b110 .
1"
b10 /
1*
#90
0*
#95
b11 1
1(
0"
1*
#100
0*
#105
1(
b11 /
1*
#110
0*
#115
b10 1
b101 .
1"
0(
1*
#120
0*
#125
b100 .
1"
b10 /
1*
#130
0*
#135
b11 1
1(
0"
1*
#140
0*
#145
1(
b11 /
1*
#150
0*
#155
b10 1
b11 .
1"
0(
1*
#160
0*
#165
b10 .
1"
b10 /
1*
#170
0*
#175
b11 1
1(
0"
1*
#180
0*
#185
1(
b11 /
1*
#190
0*
#195
b10 1
b1 .
1"
0(
1*
#200
0*
#205
b0 .
1"
b10 /
1*
#210
0*
#215
b11 1
1(
0"
1*
#220
0*
#225
1(
b11 /
1*
#230
0*
#235
b0 1
1%
10
b1111 .
1"
0(
1*
#240
0*
#245
0%
00
b10 1
b1110 .
1"
b0 /
1*
#250
0*
#255
b1 1
0"
b10 /
1*
#260
0*
#265
b11 1
1(
b1 /
1*
#270
0*
#275
b10 1
1#
1$
1&
1'
0(
b11 /
1*
#280
0*
#285
b1101 .
1"
0#
0$
0&
0'
b10 /
1*
#290
0*
#295
b11 1
1(
0"
1*
#300
0*
#305
1(
b11 /
1*
#310
0*
#315
b10 1
b1100 .
1"
0(
1*
#320
0*
#325
b1011 .
1"
b10 /
1*
#330
0*
#335
b11 1
1(
0"
1*
#340
0*
#345
1(
b11 /
1*
#350
0*
#355
b10 1
b1010 .
1"
0(
1*
#360
0*
#365
b1001 .
1"
b10 /
1*
#370
0*
#375
b11 1
1(
0"
1*
#380
0*
#385
1(
b11 /
1*
#390
0*
#395
b10 1
b1000 .
1"
0(
1*
#400
0*
#405
b111 .
1"
b10 /
1*
#410
0*
#415
b11 1
1(
0"
1*
#420
0*
#425
1(
b11 /
1*
#430
0*
#435
b10 1
b110 .
1"
0(
1*
#440
0*
#445
b101 .
1"
b10 /
1*
#450
0*
#455
b11 1
1(
0"
1*
#460
0*
#465
1(
b11 /
1*
#470
0*
#475
b10 1
b100 .
1"
0(
1*
#480
0*
#485
b11 .
1"
b10 /
1*
#490
0*
#495
b11 1
1(
0"
1*
#500
0*
#505
1(
b11 /
1*
#510
0*
b10 )
b10 -
#515
b10 1
b10 .
1"
0(
1*
#520
0*
#525
b1 .
1"
b10 /
1*
#530
0*
#535
b11 1
1!
0"
1*
#540
0*
#545
1!
b11 /
1*
#550
0*
#555
b10 1
b0 .
1"
0!
1*
#560
0*
#565
b0 1
1%
10
b1111 .
1"
b10 /
1*
#570
0*
#575
b11 1
1!
0"
b0 /
1*
#580
0*
#585
b0 1
0!
b11 /
1*
#590
0*
#595
0%
00
b10 1
b1110 .
1"
b0 /
1*
#600
0*
#605
b1 1
0"
b10 /
1*
#610
0*
#615
b11 1
1!
b1 /
1*
#620
0*
#625
b10 1
1#
1$
1&
1'
0!
b11 /
1*
#630
0*
#635
b1101 .
1"
0#
0$
0&
0'
b10 /
1*
#640
0*
#645
b11 1
1!
0"
1*
#650
0*
#655
1!
b11 /
1*
#660
0*
#665
b10 1
b1100 .
1"
0!
1*
#670
0*
#675
b1011 .
1"
b10 /
1*
#680
0*
#685
b11 1
1!
0"
1*
#690
0*
#695
1!
b11 /
1*
#700
0*
#705
b10 1
b1010 .
1"
0!
1*
#710
0*
#715
b1001 .
1"
b10 /
1*
#720
0*
#725
b11 1
1!
0"
1*
#730
0*
#735
1!
b11 /
1*
#740
0*
#745
b10 1
b1000 .
1"
0!
1*
#750
0*
#755
b111 .
1"
b10 /
1*
#760
0*
#765
b11 1
1!
0"
1*
#770
0*
#775
1!
b11 /
1*
#780
0*
#785
b10 1
b110 .
1"
0!
1*
#790
0*
#795
b101 .
1"
b10 /
1*
#800
0*
#805
b11 1
1!
0"
1*
#810
0*
#815
1!
b11 /
1*
#820
0*
#825
b10 1
b100 .
1"
0!
1*
#830
0*
#835
b11 .
1"
b10 /
1*
#840
0*
#845
b11 1
1!
0"
1*
#850
0*
#855
1!
b11 /
1*
#860
0*
#865
b10 1
b10 .
1"
0!
1*
#870
0*
#875
b1 .
1"
b10 /
1*
#880
0*
#885
b11 1
1!
0"
1*
#890
0*
#895
1!
b11 /
1*
#900
0*
#905
b10 1
b0 .
1"
0!
1*
#910
0*
#915
b0 1
1%
10
b1111 .
1"
b10 /
1*
#920
0*
#925
b11 1
1!
0"
b0 /
1*
#930
0*
#935
b0 1
0!
b11 /
1*
#940
0*
#945
0%
00
b10 1
b1110 .
1"
b0 /
1*
#950
0*
#955
b1 1
0"
b10 /
1*
#960
0*
#965
b11 1
1!
b1 /
1*
#970
0*
#975
b10 1
1#
1$
1&
1'
0!
b11 /
1*
#980
0*
#985
b1101 .
1"
0#
0$
0&
0'
b10 /
1*
#990
0*
#995
b11 1
1!
0"
1*
#1000
0*
#1005
1!
b11 /
1*
#1010
0*
0,
#1015
b10 1
b1100 .
1"
0!
1*
#1020
0*
#1025
b1011 .
1"
b10 /
1*
#1030
0*
b0 )
b0 -
1,
#1035
b11 1
0"
1*
#1040
0*
#1045
b11 /
1*
#1050
0*
#1055
b10 1
b1010 .
1"
1*
#1060
0*
#1065
b1001 .
1"
b10 /
1*
#1070
0*
#1075
b11 1
0"
1*
#1080
0*
#1085
b11 /
1*
#1090
0*
#1095
b10 1
b1000 .
1"
1*
#1100
0*
#1105
b111 .
1"
b10 /
1*
#1110
0*
#1115
b11 1
0"
1*
#1120
0*
#1125
b11 /
1*
#1130
0*
#1135
b10 1
b110 .
1"
1*
#1140
0*
#1145
b101 .
1"
b10 /
1*
#1150
0*
#1155
b11 1
0"
1*
#1160
0*
#1165
b11 /
1*
#1170
0*
#1175
b10 1
b100 .
1"
1*
#1180
0*
#1185
b11 .
1"
b10 /
1*
#1190
0*
#1195
b11 1
0"
1*
#1200
0*
#1205
b11 /
1*
#1210
0*
#1215
b10 1
b10 .
1"
1*
#1220
0*
#1225
b1 .
1"
b10 /
1*
#1230
0*
#1235
b11 1
0"
1*
#1240
0*
#1245
b11 /
1*
#1250
0*
#1255
b10 1
b0 .
1"
1*
#1260
0*
#1265
b0 1
1%
10
b1111 .
1"
b10 /
1*
#1270
0*
#1275
b11 1
0"
b0 /
1*
#1280
0*
#1285
b0 1
b11 /
1*
#1290
0*
#1295
0%
00
b10 1
b1110 .
1"
b0 /
1*
#1300
0*
#1305
b1 1
0"
b10 /
1*
#1310
0*
#1315
b11 1
b1 /
1*
#1320
0*
#1325
b10 1
1#
1$
1&
1'
b11 /
1*
#1330
0*
#1335
b1101 .
1"
0#
0$
0&
0'
b10 /
1*
#1340
0*
#1345
b11 1
0"
1*
#1350
0*
#1355
b11 /
1*
#1360
0*
#1365
b10 1
b1100 .
1"
1*
#1370
0*
#1375
b1011 .
1"
b10 /
1*
#1380
0*
#1385
b11 1
0"
1*
#1390
0*
#1395
b11 /
1*
#1400
0*
#1405
b10 1
b1010 .
1"
1*
#1410
0*
#1415
b1001 .
1"
b10 /
1*
#1420
0*
#1425
b11 1
0"
1*
#1430
0*
#1435
b11 /
1*
#1440
0*
#1445
b10 1
b1000 .
1"
1*
#1450
0*
#1455
b111 .
1"
b10 /
1*
#1460
0*
#1465
b11 1
0"
1*
#1470
0*
#1475
b11 /
1*
#1480
0*
#1485
b10 1
b110 .
1"
1*
#1490
0*
#1495
b101 .
1"
b10 /
1*
#1500
0*
#1505
b11 1
0"
1*
#1510
0*
#1515
b11 /
1*
#1520
0*
#1525
b10 1
b100 .
1"
1*
#1530
0*
0,
#1535
b11 .
1"
b10 /
1*
#1540
0*
#1545
b11 1
0"
1*
#1550
0*
#1555
b11 /
1*
#1560
0*
#1565
b10 1
b10 .
1"
1*
#1570
0*
#1575
b1 .
1"
b10 /
1*
#1580
0*
#1585
b11 1
0"
1*
#1590
0*
#1595
b11 /
1*
#1600
0*
#1605
b10 1
b0 .
1"
1*
#1610
0*
#1615
b0 1
1%
10
b1111 .
1"
b10 /
1*
#1620
0*
#1625
b11 1
0"
b0 /
1*
#1630
0*
#1635
b0 1
b11 /
1*
#1640
0*
#1645
0%
00
b10 1
b1110 .
1"
b0 /
1*
#1650
0*
#1655
b0 1
0"
b10 /
1*
#1660
0*
#1665
b11 1
b0 /
1*
#1670
0*
#1675
b0 1
b11 /
1*
#1680
0*
#1685
b10 1
b1101 .
1"
b0 /
1*
#1690
0*
#1695
b0 1
0"
b10 /
1*
#1700
0*
#1705
b11 1
b0 /
1*
#1710
0*
#1715
b0 1
b11 /
1*
#1720
0*
#1725
b10 1
b1100 .
1"
b0 /
1*
#1730
0*
#1735
b0 1
0"
b10 /
1*
#1740
0*
#1745
b11 1
b0 /
1*
#1750
0*
#1755
b0 1
b11 /
1*
#1760
0*
#1765
b10 1
b1011 .
1"
b0 /
1*
#1770
0*
#1775
b0 1
0"
b10 /
1*
#1780
0*
#1785
b11 1
b0 /
1*
#1790
0*
#1795
b0 1
b11 /
1*
#1800
0*
#1805
b10 1
b1010 .
1"
b0 /
1*
#1810
0*
#1815
b0 1
0"
b10 /
1*
#1820
0*
#1825
b11 1
b0 /
1*
#1830
0*
#1835
b0 1
b11 /
1*
#1840
0*
#1845
b10 1
b1001 .
1"
b0 /
1*
#1850
0*
#1855
b0 1
0"
b10 /
1*
#1860
0*
#1865
b11 1
b0 /
1*
#1870
0*
#1875
b0 1
b11 /
1*
#1880
0*
#1885
b10 1
b1000 .
1"
b0 /
1*
#1890
0*
#1895
b0 1
0"
b10 /
1*
#1900
0*
#1905
b11 1
b0 /
1*
#1910
0*
#1915
b0 1
b11 /
1*
#1920
0*
#1925
b10 1
b111 .
1"
b0 /
1*
#1930
0*
#1935
b0 1
0"
b10 /
1*
#1940
0*
#1945
b11 1
b0 /
1*
#1950
0*
#1955
b0 1
b11 /
1*
#1960
0*
#1965
b10 1
b110 .
1"
b0 /
1*
#1970
0*
#1975
b0 1
0"
b10 /
1*
#1980
0*
#1985
b11 1
b0 /
1*
#1990
0*
#1995
b0 1
b11 /
1*
#2000
0*
#2005
b10 1
b101 .
1"
b0 /
1*
#2010
0*
#2015
b0 1
0"
b10 /
1*
#2020
0*
#2025
b11 1
b0 /
1*
