src/build/multiplier_top_tb.vcd
$date
	Tue Nov 05 10:09:10 2024
$end
$version
	Icarus Verilog
$end
$timescale
	1s
$end
$scope module multiplier_top_tb $end
$var wire 1 ! mult_sign $end
$var wire 16 " mult_result [15:0] $end
$var reg 1 # clk $end
$var reg 8 $ num_1 [7:0] $end
$var reg 8 % num_2 [7:0] $end
$var reg 1 & rst $end
$var reg 1 ' valid $end
$scope module u_multiplier_top $end
$var wire 1 # clk $end
$var wire 8 ( num_1 [7:0] $end
$var wire 8 ) num_2 [7:0] $end
$var wire 1 & rst $end
$var wire 1 ' valid $end
$var wire 1 * subs_M $end
$var wire 1 + sign $end
$var wire 1 , shift_all $end
$var wire 16 - result [15:0] $end
$var wire 1 . reset_Qprev $end
$var wire 1 / reset_A $end
$var wire 1 0 mult_DONE $end
$var wire 1 1 load_add $end
$var wire 1 2 load_Q $end
$var wire 1 3 load_M $end
$var wire 1 4 add_M $end
$var wire 2 5 Qo_Qprev [1:0] $end
$var reg 16 6 mult_result [15:0] $end
$var reg 1 ! mult_sign $end
$scope module u_multiplier $end
$var wire 1 # clk $end
$var wire 8 7 num_1 [7:0] $end
$var wire 8 8 num_2 [7:0] $end
$var wire 1 & reset $end
$var wire 1 * subs_M $end
$var wire 1 , shift_all $end
$var wire 1 . reset_Qprev $end
$var wire 1 / reset_A $end
$var wire 1 1 load_add $end
$var wire 1 2 load_Q $end
$var wire 1 3 load_M $end
$var wire 1 4 add_M $end
$var reg 8 9 HQ [7:0] $end
$var reg 8 : LQ [7:0] $end
$var reg 8 ; M [7:0] $end
$var reg 1 < Q_prev $end
$var reg 2 = Qo_Qprev [1:0] $end
$var reg 8 > adder_sub_out [7:0] $end
$var reg 16 ? mult_result [15:0] $end
$var reg 17 @ shift [16:0] $end
$var reg 1 + sign $end
$upscope $end
$scope module u_multiplier_FSM $end
$var wire 2 A Qo_Qprev [1:0] $end
$var wire 1 # clk $end
$var wire 1 & reset $end
$var wire 1 ' valid $end
$var reg 1 4 add_M $end
$var reg 3 B current_state [2:0] $end
$var reg 1 3 load_M $end
$var reg 1 2 load_Q $end
$var reg 1 1 load_add $end
$var reg 1 0 mult_DONE $end
$var reg 3 C next_state [2:0] $end
$var reg 1 / reset_A $end
$var reg 1 . reset_Qprev $end
$var reg 1 , shift_all $end
$var reg 1 * subs_M $end
$var integer 32 D counter [31:0] $end
$upscope $end
$upscope $end
$upscope $end
$enddefinitions $end
$comment Show the parameter values. $end
$dumpall
$end
#0
$dumpvars
b0 D
bx C
b0 B
b0 A
b0 @
bx ?
b0 >
b0 =
0<
b0 ;
b0 :
b0 9
b0 8
b0 7
b0 6
b0 5
x4
x3
x2
x1
00
x/
x.
bx -
x,
x+
x*
b0 )
b0 (
0'
1&
b0 %
b0 $
0#
b0 "
0!
$end
#5
b0 C
0,
0*
04
0.
0/
01
02
03
1#
#10
0#
#15
1#
#20
0#
0&
#25
1#
#30
0#
#35
1#
#40
0#
1'
b10101 %
b10101 )
b10101 8
b111 $
b111 (
b111 7
#45
b1 C
1#
#50
0#
#55
b1 B
1#
#60
0#
#65
b10 C
1.
1/
12
13
1#
#70
0#
#75
0+
b10 5
b10 =
b10 A
b10101 :
b0 -
b0 ?
b111 ;
b101010 @
b10 B
1.
1/
12
13
1#
#80
0#
#85
b11111001 >
b11 C
11
1*
0.
0/
02
03
1#
#90
0#
#95
b11110010 >
b11111001 9
b10101 -
b10101 ?
b11111001000101010 @
b11 B
1*
11
1#
#100
0#
#105
1+
b11110010 9
b1111100100010101 -
b1111100100010101 ?
b0 >
b11110010000101010 @
b100 C
b1 D
1,
0*
01
1#
#110
0#
#115
b1 5
b1 =
b1 A
1<
b1010 :
b11111001 9
b1111001000010101 -
b1111001000010101 ?
b11111001000010101 @
b100 B
b10 D
1,
1#
#120
0#
#125
b10 5
b10 =
b10 A
0<
b10000101 :
b11111100 9
b1111100100001010 -
b1111100100001010 ?
b11111100100001010 @
b10 C
0,
1#
#130
0#
#135
b10 B
1#
#140
0#
#145
b11110101 >
b11 C
11
1*
1#
#150
0#
#155
b11101110 >
b11110101 9
b1111110010000101 -
b1111110010000101 ?
b11110101100001010 @
b11 B
1*
11
1#
#160
0#
#165
b11101110 9
b1111010110000101 -
b1111010110000101 ?
b0 >
b11101110100001010 @
b100 C
b11 D
1,
0*
01
1#
#170
0#
#175
b1 5
b1 =
b1 A
1<
b1000010 :
b11110111 9
b1110111010000101 -
b1110111010000101 ?
b11110111010000101 @
b100 B
b100 D
1,
1#
#180
0#
#185
b10 5
b10 =
b10 A
0<
b10100001 :
b11111011 9
b1111011101000010 -
b1111011101000010 ?
b11111011101000010 @
b10 C
0,
1#
#190
0#
#195
b10 B
1#
#200
0#
#205
b11110100 >
b11 C
11
1*
1#
#210
0#
#215
b11101101 >
b11110100 9
b1111101110100001 -
b1111101110100001 ?
b11110100101000010 @
b11 B
1*
11
1#
#220
0#
#225
b11101101 9
b1111010010100001 -
b1111010010100001 ?
b0 >
b11101101101000010 @
b100 C
b101 D
1,
0*
01
1#
#230
0#
#235
b1 5
b1 =
b1 A
1<
b11010000 :
b11110110 9
b1110110110100001 -
b1110110110100001 ?
b11110110110100001 @
b100 B
b110 D
1,
1#
#240
0#
#245
b0 5
b0 =
b0 A
0<
b1101000 :
b11111011 9
b1111011011010000 -
b1111011011010000 ?
b11111011011010000 @
b10 C
0,
1#
#250
0#
#255
b10 B
1#
#260
0#
#265
b11 C
1#
#270
0#
#275
b11 B
1#
#280
0#
#285
b100 C
b111 D
1,
1#
#290
0#
#295
b10110100 :
b11111101 9
b1111101101101000 -
b1111101101101000 ?
b11111101101101000 @
b100 B
b1000 D
1,
1#
#300
0#
#305
b11011010 :
b11111110 9
b1111110110110100 -
b1111110110110100 ?
b11111110110110100 @
b0 C
10
0,
1#
#310
0#
#315
b0 B
1!
b1111110110110100 "
b1111110110110100 6
1#
