src/build/multiplier_top_tb.vcd
$date
	Sat Nov 02 18:38:34 2024
$end
$version
	Icarus Verilog
$end
$timescale
	1s
$end
$scope module multiplier_top_tb $end
$var wire 1 ! mult_sign $end
$var wire 16 " mult_result [15:0] $end
$var reg 1 # clk $end
$var reg 8 $ num_1 [7:0] $end
$var reg 8 % num_2 [7:0] $end
$var reg 1 & rst $end
$var reg 1 ' valid $end
$scope module u_multiplier_top $end
$var wire 1 # clk $end
$var wire 8 ( num_1 [7:0] $end
$var wire 8 ) num_2 [7:0] $end
$var wire 1 & rst $end
$var wire 1 ' valid $end
$var wire 1 * subs_M $end
$var wire 1 + sign $end
$var wire 1 , shift_all $end
$var wire 16 - result [15:0] $end
$var wire 1 . reset_Qprev $end
$var wire 1 / reset_A $end
$var wire 1 0 mult_DONE $end
$var wire 1 1 load_Q $end
$var wire 1 2 load_M $end
$var wire 1 3 add_M $end
$var wire 2 4 Qo_Qprev [1:0] $end
$var reg 16 5 mult_result [15:0] $end
$var reg 1 ! mult_sign $end
$scope module u_multiplier $end
$var wire 1 # clk $end
$var wire 8 6 num_1 [7:0] $end
$var wire 8 7 num_2 [7:0] $end
$var wire 1 & reset $end
$var wire 1 * subs_M $end
$var wire 1 + sign $end
$var wire 1 , shift_all $end
$var wire 1 . reset_Qprev $end
$var wire 1 / reset_A $end
$var wire 16 8 mult_result [15:0] $end
$var wire 1 1 load_Q $end
$var wire 1 2 load_M $end
$var wire 1 3 add_M $end
$var wire 2 9 Qo_Qprev [1:0] $end
$var reg 8 : A [7:0] $end
$var reg 8 ; M [7:0] $end
$var reg 8 < Q [7:0] $end
$var reg 1 = Q_prev $end
$upscope $end
$scope module u_multiplier_FSM $end
$var wire 2 > Qo_Qprev [1:0] $end
$var wire 1 # clk $end
$var wire 1 0 mult_DONE $end
$var wire 1 & reset $end
$var wire 1 ' valid $end
$var reg 1 3 add_M $end
$var reg 2 ? current_state [1:0] $end
$var reg 1 @ done $end
$var reg 1 2 load_M $end
$var reg 1 1 load_Q $end
$var reg 2 A next_state [1:0] $end
$var reg 1 / reset_A $end
$var reg 1 . reset_Qprev $end
$var reg 1 , shift_all $end
$var reg 1 * subs_M $end
$var integer 32 B counter [31:0] $end
$upscope $end
$upscope $end
$upscope $end
$enddefinitions $end
$comment Show the parameter values. $end
$dumpall
$end
#0
$dumpvars
b0 B
bx A
0@
b0 ?
b0 >
0=
b0 <
b0 ;
b0 :
b0 9
b0 8
b0 7
b0 6
b0 5
b0 4
x3
x2
x1
00
x/
x.
b0 -
x,
0+
x*
b0 )
b0 (
0'
1&
b0 %
b0 $
0#
b0 "
0!
$end
#5
b0 A
0,
0*
03
0.
0/
01
02
1#
#10
0#
#15
1#
#20
0#
1'
b100 %
b100 )
b100 7
b11 $
b11 (
b11 6
0&
#25
b1 A
1#
#30
0#
#35
b1 ?
1#
#40
0#
#45
b10 A
1.
1/
11
12
1#
#50
0#
#55
1.
1/
11
12
b100 -
b100 8
b100 <
b11 ;
b10 ?
1#
#60
0#
#65
b11 A
0.
0/
01
02
1#
#70
0#
#75
b11 ?
1#
#80
0#
#85
b10 A
b1 B
1,
1#
#90
0#
#95
b10 B
1,
b10 -
b10 8
b10 <
b10 ?
1#
#100
0#
#105
b10 4
b10 9
b10 >
b1 -
b1 8
b1 <
b11 A
0,
1#
#110
0#
#115
1*
b11 ?
1#
#120
0#
#125
b111110100000001 -
b111110100000001 8
1+
b11111101 :
b10 A
b11 B
1,
0*
1#
#130
0#
#135
0+
b100 B
1,
b1111110 :
b111111010000000 -
b111111010000000 8
b10000000 <
b1 4
b1 9
b1 >
1=
b10 ?
1#
#140
0#
#145
b111111 :
b11111101000000 -
b11111101000000 8
b1000000 <
b0 4
b0 9
b0 >
0=
b11 A
13
0,
1#
#150
0#
#155
b100001001000000 -
b100001001000000 8
03
b1000010 :
b11 ?
1#
#160
0#
#165
b10 A
b101 B
1,
1#
#170
0#
#175
b110 B
1,
b100001 :
b10000100100000 -
b10000100100000 8
b100000 <
b10 ?
1#
#180
0#
#185
b10000 :
b1000010010000 -
b1000010010000 8
b10010000 <
b11 A
0,
1#
#190
0#
#195
b11 ?
1#
#200
0#
#205
b10 A
b111 B
1,
1#
#210
0#
#215
b1000 B
1,
b1000 :
b100001001000 -
b100001001000 8
b1001000 <
b10 ?
1#
#220
0#
#225
b100 :
b10000100100 -
b10000100100 8
b100100 <
b11 A
0,
1#
#230
0#
#235
b11 ?
1#
#240
0#
#245
b0 A
10
1@
1#
#250
0#
#255
b0 :
b0 -
b0 8
b0 <
b0 ;
10
1@
b0 B
b0 ?
1#
b0 %
b0 )
b0 7
b0 $
b0 (
b0 6
0'
1&
#260
0#
#265
00
0@
1#
#270
0#
#275
b1 A
1#
1'
b110 %
b110 )
b110 7
b101 $
b101 (
b101 6
0&
#280
0#
#285
b1 ?
1#
#290
0#
#295
b10 A
1.
1/
11
12
1#
#300
0#
#305
1.
1/
11
12
b10 ?
b110 -
b110 8
b110 <
b101 ;
1#
#310
0#
#315
b11 A
0.
0/
01
02
1#
#320
0#
#325
b11 ?
1#
#330
0#
#335
b10 A
b1 B
1,
1#
#340
0#
#345
b10 4
b10 9
b10 >
b11 -
b11 8
b11 <
b10 B
1,
b10 ?
1#
#350
0#
#355
b11 A
1*
0,
b1 -
b1 8
b1 <
b11 4
b11 9
b11 >
1=
1#
#360
0#
#365
b111101100000001 -
b111101100000001 8
1+
b11111011 :
0*
b11 ?
1#
#370
0#
#375
b10 A
b11 B
1,
1#
#380
0#
#385
0+
b1 4
b1 9
b1 >
b1111101 :
b111110110000000 -
b111110110000000 8
b10000000 <
b100 B
1,
b10 ?
1#
#390
0#
#395
b11 A
13
0,
b111110 :
b11111011000000 -
b11111011000000 8
b11000000 <
b0 4
b0 9
b0 >
0=
1#
#400
0#
#405
b100001111000000 -
b100001111000000 8
b1000011 :
03
b11 ?
1#
#410
0#
#415
b10 A
b101 B
1,
1#
#420
0#
#425
b100001 :
b10000111100000 -
b10000111100000 8
b11100000 <
b110 B
1,
b10 ?
1#
#430
0#
#435
b11 A
0,
b10000 :
b1000011110000 -
b1000011110000 8
b11110000 <
1#
#440
0#
#445
b11 ?
1#
#450
0#
#455
b10 A
b111 B
1,
1#
#460
0#
#465
b1000 :
b100001111000 -
b100001111000 8
b1111000 <
b1000 B
1,
b10 ?
1#
#470
0#
#475
b11 A
0,
b100 :
b10000111100 -
b10000111100 8
b111100 <
1#
#480
0#
#485
b11 ?
1#
#490
0#
#495
b0 A
10
1@
1#
#500
0#
#505
b10000111100 "
b10000111100 5
b0 ?
1#
